{
  "type": "object",
  "properties" : {
     "source_epic": {
       "allOf": [
          { "$ref": "../../../../../../spec/fixtures/api/schemas/public_api/v4/epic.json" }
        ]
     },
     "target_epic": {
       "allOf": [
          { "$ref": "../../../../../../spec/fixtures/api/schemas/public_api/v4/epic.json" }
        ]
     },
     "link_type": {
       "type": "string",
       "enum": ["relates_to", "blocks", "is_blocked_by"]
     },
     "link_created_at": { "type": "string" },
     "link_updated_at": { "type": "string" }
  },
  "required" : [ "source_epic", "target_epic", "link_type" ]
}
